Prompt.txt,-0.42,3.59,0.64,-0.03,0.94,0.33,0.00,5.181,3.238,0.008,
Label: country.txt,2.50,2.50,-2.50,0.00,0.71,0.00,0.71,0.800,0.250,0.003,
country/b_11_0010.txt,2.50,2.00,-3.50,0.00,0.71,0.00,0.71,0.500,0.313,0.003,
country/b_11_0033.txt,2.50,2.00,-2.88,0.00,0.71,0.00,0.71,0.500,0.313,0.003,
country/b_11_0036.txt,2.50,2.00,-2.25,0.00,0.71,0.00,0.71,0.500,0.313,0.003,
country/b_11_0044.txt,2.50,2.00,-1.63,0.00,0.71,0.00,0.71,0.500,0.313,0.003,
country/b_11_0052.txt,2.50,1.60,-3.50,0.00,0.71,0.00,0.71,0.500,0.313,0.003,
country/b_11_0191.txt,2.50,1.60,-2.88,0.00,0.71,0.00,0.71,0.500,0.313,0.003,
country/b_11_0239.txt,2.50,1.60,-2.25,0.00,0.71,0.00,0.71,0.500,0.313,0.003,
country/b_11_0280.txt,2.50,1.60,-1.63,0.00,0.71,0.00,0.71,0.500,0.313,0.003,
country/b_11_0299.txt,-0.45,1.27,-3.23,0.05,-0.90,0.13,0.41,0.500,0.313,0.003,Fighting together will eliminate prejudice
country/b_11_0343.txt,-1.58,1.01,0.29,0.09,-0.30,0.19,0.93,0.500,0.313,0.003,
country/w_09_0110.txt,-1.73,1.35,4.12,-0.16,0.19,-0.67,0.70,0.605,0.378,0.004,
country/w_09_0248.txt,-0.92,1.36,3.90,-0.03,-0.28,-0.14,-0.95,0.500,0.313,0.003,
country/w_09_0353.txt,2.50,0.80,-3.50,0.00,0.71,0.00,0.71,0.500,0.313,0.003,
country/w_09_0416.txt,2.50,0.80,-2.88,0.00,0.71,0.00,0.71,0.500,0.313,0.003,
country/w_09_0562.txt,2.50,0.80,-2.25,0.00,0.71,0.00,0.71,0.500,0.313,0.003,
country/w_09_0728.txt,2.50,0.80,-1.63,0.00,0.71,0.00,0.71,0.500,0.313,0.003,
country/w_09_0758.txt,2.50,0.40,-3.50,0.00,0.71,0.00,0.71,0.500,0.313,0.003,
country/w_10_0119.txt,2.50,0.40,-2.88,0.00,0.71,0.00,0.71,0.500,0.313,0.003,
country/w_10_0151.txt,2.50,0.40,-2.25,0.00,0.71,0.00,0.71,0.500,0.313,0.003,
country/w_10_0558.txt,2.50,0.40,-1.63,0.00,0.71,0.00,0.71,0.500,0.313,0.003,
Label: fair.txt,2.50,2.50,0.00,0.00,0.71,0.00,0.71,0.800,0.250,0.003,
fair/b_11_0027.txt,2.50,2.00,-1.00,0.00,0.71,0.00,0.71,0.500,0.313,0.003,
fair/b_11_0373.txt,2.50,2.00,-0.38,0.00,0.71,0.00,0.71,0.500,0.313,0.003,
fair/b_11_0377.txt,2.50,2.00,0.25,0.00,0.71,0.00,0.71,0.500,0.313,0.003,
fair/b_11_0398.txt,2.50,2.00,0.88,0.00,0.71,0.00,0.71,0.500,0.313,0.003,
fair/b_11_0459.txt,2.50,1.60,-1.00,0.00,0.71,0.00,0.71,0.500,0.313,0.003,
fair/b_11_0502.txt,2.50,1.60,-0.38,0.00,0.71,0.00,0.71,0.500,0.313,0.003,
fair/b_11_0609.txt,2.50,1.60,0.25,0.00,0.71,0.00,0.71,0.500,0.313,0.003,
fair/b_11_1468.txt,2.50,1.60,0.88,0.00,0.71,0.00,0.71,0.500,0.313,0.003,
fair/b_12_0642.txt,-1.01,0.40,-1.19,0.12,-0.66,0.24,0.71,0.500,0.313,0.003,
fair/b_12_0814.txt,-1.19,0.84,-1.17,0.04,-0.79,0.18,0.59,0.500,0.313,0.003,
fair/w_09_0053.txt,-0.86,0.45,3.46,-0.16,-0.21,-0.08,-0.96,0.500,0.313,0.003,
fair/w_09_0099.txt,-0.61,0.92,3.38,-0.14,-0.44,-0.08,-0.88,0.500,0.313,0.003,
fair/w_09_0104.txt,2.50,0.80,-1.00,0.00,0.71,0.00,0.71,0.500,0.313,0.003,
fair/w_09_0113.txt,2.50,0.80,-0.38,0.00,0.71,0.00,0.71,0.500,0.313,0.003,
fair/w_09_0180.txt,2.50,0.80,0.25,0.00,0.71,0.00,0.71,0.500,0.313,0.003,
fair/w_09_0232.txt,2.50,0.80,0.88,0.00,0.71,0.00,0.71,0.500,0.313,0.003,
fair/w_09_0376.txt,2.50,0.40,-1.00,0.00,0.71,0.00,0.71,0.500,0.313,0.003,
fair/w_09_0434.txt,2.50,0.40,-0.38,0.00,0.71,0.00,0.71,0.500,0.313,0.003,
fair/w_09_0454.txt,2.50,0.40,0.25,0.00,0.71,0.00,0.71,0.500,0.313,0.003,
fair/w_09_1599.txt,2.50,0.40,0.88,0.00,0.71,0.00,0.71,0.500,0.313,0.003,
Label: fight.txt,2.50,2.50,2.50,0.00,0.71,0.00,0.71,0.800,0.250,0.003,
fight/b_11_0142.txt,2.50,2.00,1.50,0.00,0.71,0.00,0.71,0.500,0.313,0.003,
fight/b_11_0288.txt,2.50,2.00,2.13,0.00,0.71,0.00,0.71,0.500,0.313,0.003,
fight/b_11_0728.txt,2.50,2.00,2.75,0.00,0.71,0.00,0.71,0.500,0.313,0.003,
fight/b_11_1001.txt,2.50,2.00,3.38,0.00,0.71,0.00,0.71,0.500,0.313,0.003,
fight/b_11_1493.txt,-1.47,0.63,0.39,0.10,-0.76,0.30,0.58,0.500,0.313,0.003,
fight/b_11_1553.txt,-1.09,0.37,0.03,0.14,-0.85,0.33,0.38,0.500,0.313,0.003,
fight/b_11_1570.txt,2.50,1.60,2.75,0.00,0.71,0.00,0.71,0.500,0.313,0.003,
fight/b_11_1581.txt,2.50,1.60,3.38,0.00,0.71,0.00,0.71,0.500,0.313,0.003,
fight/b_12_0388.txt,-1.67,0.70,-0.35,0.05,-0.92,0.17,0.34,0.500,0.313,0.003,
fight/b_12_0583.txt,-0.98,0.69,-0.61,-0.03,-0.91,0.20,0.36,0.500,0.313,0.003,Fight for freedom
fight/w_09_0124.txt,-1.39,1.02,4.20,0.05,0.40,0.42,0.81,0.500,0.313,0.003,
fight/w_09_0364.txt,-1.48,1.27,1.55,0.07,-0.60,0.10,0.79,0.500,0.313,0.003,
fight/w_09_0542.txt,-1.19,0.50,3.85,0.02,0.47,0.22,0.86,0.500,0.313,0.003,
fight/w_09_0657.txt,-1.65,0.49,4.12,0.10,0.18,0.16,0.97,0.500,0.313,0.003,
fight/w_09_0672.txt,2.50,0.80,2.75,0.00,0.71,0.00,0.71,0.500,0.313,0.003,
fight/w_09_0688.txt,2.50,0.80,3.38,0.00,0.71,0.00,0.71,0.500,0.313,0.003,
fight/w_09_1023.txt,2.50,0.40,1.50,0.00,0.71,0.00,0.71,0.500,0.313,0.003,
fight/w_09_1255.txt,2.50,0.40,2.13,0.00,0.71,0.00,0.71,0.500,0.313,0.003,
fight/w_09_1551.txt,2.50,0.40,2.75,0.00,0.71,0.00,0.71,0.500,0.313,0.003,
fight/w_09_1570.txt,2.50,0.40,3.38,0.00,0.71,0.00,0.71,0.500,0.313,0.003,
Label: negro.txt,2.50,2.50,5.00,0.00,0.71,0.00,0.71,0.800,0.250,0.003,
negro/b_11_0234.txt,2.50,2.00,4.00,0.00,0.71,0.00,0.71,0.500,0.313,0.003,
negro/b_11_0500.txt,2.50,2.00,4.63,0.00,0.71,0.00,0.71,0.500,0.313,0.003,
negro/b_11_0987.txt,2.50,2.00,5.25,0.00,0.71,0.00,0.71,0.500,0.313,0.003,
negro/b_11_1192.txt,2.50,2.00,5.88,0.00,0.71,0.00,0.71,0.500,0.313,0.003,
negro/b_11_1269.txt,2.50,1.60,4.00,0.00,0.71,0.00,0.71,0.500,0.313,0.003,
negro/b_11_1397.txt,2.50,1.60,4.63,0.00,0.71,0.00,0.71,0.500,0.313,0.003,
negro/b_11_1528.txt,2.50,1.60,5.25,0.00,0.71,0.00,0.71,0.500,0.313,0.003,
negro/b_11_1606.txt,2.50,1.60,5.88,0.00,0.71,0.00,0.71,0.500,0.313,0.003,
negro/b_12_0063.txt,-0.91,1.22,-1.22,0.04,-0.97,0.16,0.15,0.500,0.313,0.003,
negro/b_12_0136.txt,-2.30,0.68,1.55,0.10,-0.91,0.15,0.38,0.907,0.567,0.005,,658,1042
negro/w_09_0065.txt,0.14,1.28,-3.44,0.13,-0.98,0.12,0.08,0.500,0.313,0.003,Afraid it will get rid of segregation
negro/w_09_0303.txt,-0.70,1.09,4.05,-0.19,-0.17,-0.09,-0.96,0.498,0.311,0.003,,176,290
negro/w_09_0354.txt,2.50,0.80,4.00,0.00,0.71,0.00,0.71,0.500,0.313,0.003,
negro/w_09_1123.txt,0.29,0.60,-2.34,-0.11,-0.97,0.19,-0.08,0.641,0.401,0.004,
negro/w_09_1448.txt,-0.62,1.52,5.50,-0.01,-0.35,0.02,0.94,1.097,0.686,0.007,
negro/w_09_1557.txt,-0.75,1.20,-2.64,0.06,-0.89,0.16,0.42,0.597,0.373,0.004,
negro/w_09_1598.txt,2.50,0.40,4.00,0.00,0.71,0.00,0.71,0.500,0.313,0.003,
negro/w_09_1646.txt,2.50,0.40,4.63,0.00,0.71,0.00,0.71,0.500,0.313,0.003,
negro/w_09_1658.txt,2.50,0.40,5.25,0.00,0.71,0.00,0.71,0.500,0.313,0.003,
negro/w_09_1716.txt,2.50,0.40,5.88,0.00,0.71,0.00,0.71,0.500,0.313,0.003,
Label: white.txt,2.50,2.50,7.50,0.00,0.71,0.00,0.71,0.800,0.250,0.003,
white/b_11_0034.txt,2.50,2.00,6.50,0.00,0.71,0.00,0.71,0.500,0.313,0.003,
white/b_11_0181.txt,2.50,2.00,7.13,0.00,0.71,0.00,0.71,0.500,0.313,0.003,
white/b_11_0196.txt,2.50,2.00,7.75,0.00,0.71,0.00,0.71,0.500,0.313,0.003,
white/b_11_0201.txt,2.50,2.00,8.38,0.00,0.71,0.00,0.71,0.500,0.313,0.003,
white/b_11_0408.txt,0.33,1.17,6.30,0.08,0.15,0.24,0.95,1.044,0.653,0.006,
white/b_11_0566.txt,2.50,1.60,7.13,0.00,0.71,0.00,0.71,0.500,0.313,0.003,
white/b_11_0802.txt,2.50,1.60,7.75,0.00,0.71,0.00,0.71,0.500,0.313,0.003,
white/b_11_1574.txt,2.50,1.60,8.38,0.00,0.71,0.00,0.71,0.500,0.313,0.003,
white/b_12_0309.txt,-1.95,0.52,0.39,0.09,-0.93,0.27,0.25,0.968,0.605,0.006,
white/b_12_0787.txt,0.92,0.99,-3.61,0.04,-0.96,0.25,0.09,1.084,0.678,0.007,
white/w_09_0123.txt,0.06,0.92,6.30,0.11,-0.08,0.27,0.95,0.917,0.573,0.006,
white/w_09_0145.txt,-0.85,1.66,7.24,0.14,-0.25,0.18,0.94,0.948,0.593,0.006,
white/w_09_0264.txt,2.50,0.80,6.50,0.00,0.71,0.00,0.71,0.500,0.313,0.003,
white/w_09_0664.txt,2.50,0.80,7.13,0.00,0.71,0.00,0.71,0.500,0.313,0.003,
white/w_09_0704.txt,2.50,0.80,7.75,0.00,0.71,0.00,0.71,0.500,0.313,0.003,
white/w_09_0757.txt,2.50,0.80,8.38,0.00,0.71,0.00,0.71,0.500,0.313,0.003,
white/w_09_1078.txt,2.50,0.40,6.50,0.00,0.71,0.00,0.71,0.500,0.313,0.003,
white/w_10_0288.txt,2.50,0.40,7.13,0.00,0.71,0.00,0.71,0.500,0.313,0.003,
white/w_10_0305.txt,2.50,0.40,7.75,0.00,0.71,0.00,0.71,0.500,0.313,0.003,
white/w_10_0580.txt,2.50,0.40,8.38,0.00,0.71,0.00,0.71,0.500,0.313,0.003,
Label: Fight for Freedom.txt,-1.30,0.93,-0.60,0.00,-0.96,0.23,0.15,0.400,0.125,0.003,
Label: Army Sucks.txt,0.11,1.56,3.09,0.08,0.11,0.07,0.99,0.400,0.125,0.003,
Label: Fighting together.txt,-0.42,1.55,-3.10,-0.04,0.95,-0.16,-0.28,0.400,0.125,0.003,
