Prompt.txt,-1.58,2.60,-1.52,-0.05,-0.94,-0.26,0.19,2.487,1.554,0.004,
Label: country.txt,2.50,2.50,-2.50,0.00,0.71,0.00,0.71,0.800,0.250,0.003,
country/b_11_0010.txt,2.50,2.00,-3.50,0.00,0.71,0.00,0.71,0.500,0.313,0.003,
country/b_11_0033.txt,2.50,2.00,-2.88,0.00,0.71,0.00,0.71,0.500,0.313,0.003,
country/b_11_0036.txt,-0.51,0.47,2.75,0.29,-0.05,0.13,0.95,0.501,0.313,0.003,
country/b_11_0044.txt,2.50,2.00,-1.63,0.00,0.71,0.00,0.71,0.500,0.313,0.003,
country/b_11_0052.txt,2.50,1.60,-3.50,0.00,0.71,0.00,0.71,0.500,0.313,0.003,
country/b_11_0191.txt,-0.20,0.62,3.44,0.12,-0.04,0.04,0.99,0.760,0.475,0.005,
country/b_11_0239.txt,2.50,1.60,-2.25,0.00,0.71,0.00,0.71,0.500,0.313,0.003,
country/b_11_0280.txt,2.50,1.60,-1.63,0.00,0.71,0.00,0.71,0.500,0.313,0.003,
country/b_11_0299.txt,2.50,1.20,-3.50,0.00,0.71,0.00,0.71,0.500,0.313,0.003,
country/b_11_0343.txt,-1.53,1.78,0.89,-0.09,-0.76,-0.22,0.61,0.437,0.273,0.003,
country/w_09_0110.txt,-1.72,1.68,2.10,-0.13,-0.52,-0.02,0.85,0.502,0.314,0.003,
country/w_09_0248.txt,2.50,1.20,-1.63,0.00,0.71,0.00,0.71,0.500,0.313,0.003,
country/w_09_0353.txt,-1.59,1.39,0.50,-0.03,-0.86,-0.11,0.51,0.609,0.380,0.004,
country/w_09_0416.txt,-0.85,0.63,-1.65,0.02,-0.99,0.04,0.10,0.614,0.383,0.004,
country/w_09_0562.txt,0.32,1.27,-0.35,0.08,0.99,0.06,0.14,0.984,0.615,0.006,
country/w_09_0728.txt,2.50,0.80,-1.63,0.00,0.71,0.00,0.71,0.500,0.313,0.003,
country/w_09_0758.txt,0.68,0.45,5.02,0.08,-0.01,0.09,0.99,0.932,0.582,0.006,
country/w_10_0119.txt,2.50,0.40,-2.88,0.00,0.71,0.00,0.71,0.500,0.313,0.003,
country/w_10_0151.txt,1.03,1.35,-2.03,0.02,0.98,0.16,0.08,0.754,0.471,0.005,
country/w_10_0558.txt,2.50,0.40,-1.63,0.00,0.71,0.00,0.71,0.500,0.313,0.003,
Label: fair.txt,2.50,2.50,0.00,0.00,0.71,0.00,0.71,0.800,0.250,0.003,
fair/b_11_0027.txt,2.50,2.00,-1.00,0.00,0.71,0.00,0.71,0.500,0.313,0.003,
fair/b_11_0373.txt,0.21,1.83,3.64,-0.08,0.23,-0.03,0.97,0.535,0.335,0.003,
fair/b_11_0377.txt,2.50,2.00,0.25,0.00,0.71,0.00,0.71,0.500,0.313,0.003,
fair/b_11_0398.txt,-0.79,1.56,4.14,0.03,0.10,0.06,0.99,0.466,0.291,0.003,,1,67
fair/b_11_0459.txt,2.69,1.36,-0.65,0.02,0.66,-0.03,0.75,0.500,0.313,0.003,
fair/b_11_0502.txt,2.47,1.64,-0.45,0.00,0.72,0.01,0.70,0.500,0.313,0.003,
fair/b_11_0609.txt,2.50,1.60,0.25,0.00,0.71,0.00,0.71,0.500,0.313,0.003,
fair/b_11_1468.txt,2.50,1.60,0.88,0.00,0.71,0.00,0.71,0.500,0.313,0.003,
fair/b_12_0642.txt,2.50,1.20,-1.00,0.00,0.71,0.00,0.71,0.500,0.313,0.003,
fair/b_12_0814.txt,-1.22,1.37,3.51,-0.30,-0.27,0.10,0.91,0.647,0.405,0.004,,398,542
fair/w_09_0053.txt,2.50,1.20,0.25,0.00,0.71,0.00,0.71,0.500,0.313,0.003,
fair/w_09_0099.txt,-0.79,0.77,-0.89,0.02,-0.97,0.22,0.10,0.454,0.284,0.003,
fair/w_09_0104.txt,0.82,0.55,3.24,0.16,0.10,0.02,0.98,0.774,0.484,0.005,
fair/w_09_0113.txt,-1.25,0.73,-0.99,-0.11,-0.99,0.03,0.02,0.471,0.295,0.003,
fair/w_09_0180.txt,2.50,0.80,0.25,0.00,0.71,0.00,0.71,0.500,0.313,0.003,
fair/w_09_0232.txt,2.50,0.80,0.88,0.00,0.71,0.00,0.71,0.500,0.313,0.003,
fair/w_09_0376.txt,2.50,0.40,-1.00,0.00,0.71,0.00,0.71,0.500,0.313,0.003,
fair/w_09_0434.txt,2.50,0.40,-0.38,0.00,0.71,0.00,0.71,0.500,0.313,0.003,
fair/w_09_0454.txt,2.50,0.40,0.25,0.00,0.71,0.00,0.71,0.500,0.313,0.003,
fair/w_09_1599.txt,2.50,0.40,0.88,0.00,0.71,0.00,0.71,0.500,0.313,0.003,
Label: fight.txt,2.50,2.50,2.50,0.00,0.71,0.00,0.71,0.800,0.250,0.003,
fight/b_11_0142.txt,0.06,1.40,-0.29,0.00,0.98,0.03,0.19,0.616,0.385,0.004,,594,705
fight/b_11_0288.txt,2.50,2.00,2.13,0.00,0.71,0.00,0.71,0.500,0.313,0.003,
fight/b_11_0728.txt,2.50,2.00,2.75,0.00,0.71,0.00,0.71,0.500,0.313,0.003,
fight/b_11_1001.txt,-0.18,1.51,4.04,0.17,0.09,-0.04,0.98,0.500,0.312,0.003,Mistreatment and feeling disadvantaged,1116,1273,1349,1467
fight/b_11_1493.txt,2.50,1.60,1.50,0.00,0.71,0.00,0.71,0.500,0.313,0.003,
fight/b_11_1553.txt,2.50,1.60,2.13,0.00,0.71,0.00,0.71,0.500,0.313,0.003,
fight/b_11_1570.txt,2.50,1.60,2.75,0.00,0.71,0.00,0.71,0.500,0.313,0.003,
fight/b_11_1581.txt,2.50,1.60,3.38,0.00,0.71,0.00,0.71,0.500,0.313,0.003,
fight/b_12_0388.txt,2.50,1.20,1.50,0.00,0.71,0.00,0.71,0.500,0.313,0.003,
fight/b_12_0583.txt,2.50,1.20,2.13,0.00,0.71,0.00,0.71,0.500,0.313,0.003,
fight/w_09_0124.txt,2.50,1.20,2.75,0.00,0.71,0.00,0.71,0.500,0.313,0.003,
fight/w_09_0364.txt,-1.47,1.83,0.37,-0.11,-0.92,-0.18,0.32,0.726,0.454,0.004,
fight/w_09_0542.txt,2.50,0.80,1.50,0.00,0.71,0.00,0.71,0.500,0.313,0.003,
fight/w_09_0657.txt,-0.92,0.91,3.16,0.08,-0.17,0.20,0.96,0.393,0.246,0.002,,995,1036
fight/w_09_0672.txt,2.50,0.80,2.75,0.00,0.71,0.00,0.71,0.500,0.313,0.003,
fight/w_09_0688.txt,1.08,1.10,5.07,-0.02,0.15,0.14,0.98,0.639,0.400,0.004,
fight/w_09_1023.txt,2.50,0.40,1.50,0.00,0.71,0.00,0.71,0.500,0.313,0.003,
fight/w_09_1255.txt,2.50,0.40,2.13,0.00,0.71,0.00,0.71,0.500,0.313,0.003,
fight/w_09_1551.txt,2.50,0.40,2.75,0.00,0.71,0.00,0.71,0.500,0.313,0.003,
fight/w_09_1570.txt,2.50,0.40,3.38,0.00,0.71,0.00,0.71,0.500,0.313,0.003,
Label: negro.txt,2.50,2.50,5.00,0.00,0.71,0.00,0.71,0.800,0.250,0.003,
negro/b_11_0234.txt,2.50,2.00,4.00,0.00,0.71,0.00,0.71,0.500,0.313,0.003,
negro/b_11_0500.txt,2.50,2.00,4.63,0.00,0.71,0.00,0.71,0.500,0.313,0.003,
negro/b_11_0987.txt,-1.10,1.10,4.46,0.22,-0.21,0.09,0.95,0.744,0.465,0.004,
negro/b_11_1192.txt,2.50,2.00,5.88,0.00,0.71,0.00,0.71,0.500,0.313,0.003,
negro/b_11_1269.txt,2.50,1.60,4.00,0.00,0.71,0.00,0.71,0.500,0.313,0.003,
negro/b_11_1397.txt,2.50,1.60,4.63,0.00,0.71,0.00,0.71,0.500,0.313,0.003,
negro/b_11_1528.txt,-0.90,0.94,2.67,0.06,-0.20,0.04,0.98,0.568,0.355,0.003,
negro/b_11_1606.txt,2.50,1.60,5.88,0.00,0.71,0.00,0.71,0.500,0.313,0.003,
negro/b_12_0063.txt,3.16,1.46,2.83,-0.04,0.85,0.03,0.52,0.500,0.313,0.003,
negro/b_12_0136.txt,2.50,1.20,4.63,0.00,0.71,0.00,0.71,0.500,0.313,0.003,
negro/w_09_0065.txt,-0.77,0.93,3.70,-0.04,-0.07,0.00,1.00,0.805,0.503,0.005,,202,393
negro/w_09_0303.txt,2.50,1.20,5.88,0.00,0.71,0.00,0.71,0.500,0.313,0.003,
negro/w_09_0354.txt,2.50,0.80,4.00,0.00,0.71,0.00,0.71,0.500,0.313,0.003,
negro/w_09_1123.txt,2.50,0.80,4.63,0.00,0.71,0.00,0.71,0.500,0.313,0.003,
negro/w_09_1448.txt,-0.11,1.76,-2.92,0.13,0.95,0.27,-0.13,0.525,0.328,0.003,
negro/w_09_1557.txt,2.50,0.80,5.88,0.00,0.71,0.00,0.71,0.500,0.313,0.003,
negro/w_09_1598.txt,2.50,0.40,4.00,0.00,0.71,0.00,0.71,0.500,0.313,0.003,
negro/w_09_1646.txt,2.50,0.40,4.63,0.00,0.71,0.00,0.71,0.500,0.313,0.003,
negro/w_09_1658.txt,0.97,0.61,5.61,0.03,0.10,0.03,0.99,1.137,0.710,0.007,
negro/w_09_1716.txt,2.50,0.40,5.88,0.00,0.71,0.00,0.71,0.500,0.313,0.003,
Label: white.txt,2.50,2.50,7.50,0.00,0.71,0.00,0.71,0.800,0.250,0.003,
white/b_11_0034.txt,2.50,2.00,6.50,0.00,0.71,0.00,0.71,0.500,0.313,0.003,
white/b_11_0181.txt,2.50,2.00,7.13,0.00,0.71,0.00,0.71,0.500,0.313,0.003,
white/b_11_0196.txt,-0.41,0.70,3.03,0.19,0.01,-0.01,0.98,0.530,0.331,0.003,
white/b_11_0201.txt,0.24,0.48,2.90,0.39,0.09,0.05,0.92,0.723,0.452,0.004,
white/b_11_0408.txt,0.33,1.02,3.09,0.00,0.15,0.20,0.97,0.716,0.447,0.004,
white/b_11_0566.txt,2.50,1.60,7.13,0.00,0.71,0.00,0.71,0.500,0.313,0.003,
white/b_11_0802.txt,2.50,1.60,7.75,0.00,0.71,0.00,0.71,0.500,0.313,0.003,
white/b_11_1574.txt,2.50,1.60,8.38,0.00,0.71,0.00,0.71,0.500,0.313,0.003,
white/b_12_0309.txt,0.33,1.41,3.78,-0.07,0.19,-0.09,0.97,0.523,0.327,0.003,
white/b_12_0787.txt,2.50,1.20,7.13,0.00,0.71,0.00,0.71,0.500,0.313,0.003,
white/w_09_0123.txt,2.50,1.20,7.75,0.00,0.71,0.00,0.71,0.500,0.313,0.003,
white/w_09_0145.txt,1.02,0.61,4.67,0.15,0.34,0.04,0.93,0.429,0.268,0.003,
white/w_09_0264.txt,-2.40,1.06,1.10,0.15,-0.69,0.25,0.66,0.340,0.212,0.002,
white/w_09_0664.txt,2.50,0.80,7.13,0.00,0.71,0.00,0.71,0.500,0.313,0.003,
white/w_09_0704.txt,0.09,1.07,3.46,0.04,-0.02,0.04,1.00,0.445,0.278,0.003,
white/w_09_0757.txt,2.50,0.80,8.38,0.00,0.71,0.00,0.71,0.500,0.313,0.003,
white/w_09_1078.txt,2.50,0.40,6.50,0.00,0.71,0.00,0.71,0.500,0.313,0.003,
white/w_10_0288.txt,2.50,0.40,7.13,0.00,0.71,0.00,0.71,0.500,0.313,0.003,
white/w_10_0305.txt,-1.48,1.08,0.62,0.01,-0.84,0.02,0.55,0.709,0.443,0.004,
white/w_10_0580.txt,2.50,0.40,8.38,0.00,0.71,0.00,0.71,0.500,0.313,0.003,
Label: Home.txt,-0.13,1.95,-0.37,-0.06,0.99,0.08,0.05,0.422,0.132,0.003,
Label: Mistreatment.txt,-0.41,1.82,3.97,0.07,-0.01,0.04,1.00,0.465,0.145,0.003,
Label: End the War.txt,-1.73,2.22,0.72,-0.01,-0.87,-0.13,0.47,0.400,0.125,0.003,
Label: Happy.txt,-1.67,1.71,2.05,-0.06,-0.61,-0.02,0.79,0.400,0.125,0.003,
Label: Equal.txt,-2.64,1.20,1.04,0.10,-0.70,0.16,0.69,0.400,0.125,0.003,
Label: Overall Unhappy.txt,-1.14,0.97,-1.28,0.04,-0.97,0.22,0.13,0.424,0.132,0.003,
Label: Respect.txt,-0.36,2.14,-2.84,0.01,0.91,0.40,-0.02,0.694,0.217,0.005,
