Document,Contents
fight/b_11_0142,"""as for my self I like army life but there are some things I dont quite understand about our Government I came here from Camp Lee Had to stand up lots of time when some of the cars wernt even full After all you took me in the army and I am in Here to do my best when I get my Furlough I am wandering Home I will get food because the state I am going through to get home they will not want me to go to the Diner Car I think that is a terriable thing for a sailder to have to even think about when we are all in here fighting for one cause and that is a complete [underline] victory [/underline] for the good Old United States which I dearly love and don't want to live no where else because this is my Home"""
fight/b_11_1001,"""Cpl R. Barton  24th  Aur. Sqrd  Eglin field, fla.  Negroes have fought and died in the past world war. They were promisted justice freedom of speech, many other things. Untill now we have believed nothing. Today Americas production is behind but [unclear]referal[/unclear] to [unclear][/unclear] negro skill workers only. Only discrimination is causing such. All foreign borns get more recognition than a American negro. The pledge to the flag, the so call democracy, the bill of Rights none of it has been exercized at all toward the negro. Hail Salasie years ago asked help from the Leag[League] of Nation and received none . China asked also and finally received help. England gave Ireland her freedom years ago. Today India is willing to fight if given her freedom. England which is in conference with the U.S. finally decided no. Refuse Indias freedom rather than have her fight with the allies.  Madam Shan Ki Shek spoke in the United States several days ago thanking America for their help and future consideration of giving China full status in America. The American Negro has been loyal to America always. The President has not think of giving the negro full status at all. I am quite sure we have proven to you that we are worthy of receiving justice and liberty. In this camp negro boys are suffering. Threaten and practically starving. The boys of the other race are living luxjuriously. Colored soldiers are living in worst quarters than white prisoners. And colored prisoners (Soldiers) will cease to exist if conditions arn't soon bettered. The Men Officer do not give us food that is worth eating but expect us to fight, puting our heart and soul into it Negroes of the south are refused the privelige to vote for the one to controle the country or county or city however we pay tax. Educational oportunities offered by the Government are limited to negroes. These are some of the many things why we (the Negroes) ask ourselves the question what are we fighting for?"""
fair/b_11_0398,"""I think most of the colored soldiers in the army is treated unfair, may I say not in one way but in every. In fact a negro soldier has a hard way to go. I also don't like the idea of being down south, for we're being treated worse here than if we were in a northern camp: I am not expecting to be treated as a king in this army, but only wants fair justice;    Transportation is also very; very poor. In fact we all have to fight together. I think we should have the same privileges as white soldiers; I would very much like to say that negro soldiers are hated worst down south than anywhere else. Therefore I think it would be excellent if my outfit were in the north, I mean a northern camp. for I am quite sure the others feels as I do. but as a matter of fact I am merely speaking my opinions, which I know is true. """