Document,Contents
country/b_11_0044,"""In order to make a soldier feel that he has something to fight for, he should be near his home town or near some big city where he can see and realize what he must fight to try and hold.  To stop the rough treatment of soldiers in Southern states would help very much in every Negro's mind, that he really has something to fight for.  If a man feels that he is being treated right, he can do far better than if he thinks he is not.  It is hard to fight another country when we are fighting among ourselves and trying to keep the darker race down because of color.  We the Negro people are of different color but of the same material underneath as the white, and if we are given the chance we can do the same things which have been proven in some cases.  Let's stop putting White MPs over colored soldiers and shooting and beating them."""
country/w_09_0248,"""Personally I'm not one who gripes. I live for today and do not fret the day I haven't seen. I do what I'm told and do it just as well as the next soldier. If I'm helping to win this war, Im wondering  when I'll start. If chopping wood, K.P. picking up cigarettes, matches etc is being a soldier and helping to get this war over with then I'll be damned. I don't want to be a civilian again until after the war, but some kind of defense job would be doing more for my country then what I'm doing now.  As far as myself, I'm not helping one bit and the future as far as I see it doesn't hold anything in store for me as far as being a soldier."""
country/b_11_0191,"""This War Will not and won't be won until the White man wakes up to the fact that the Negro is playing just as important a part in this war as himself. A Negro in Uniform representing the U.S. is not shown the Equal amont of respect as given a white soldiers. Discrimination in the army is going to extremes and will not be tolerated any longer its bound to mean trouble sooner or later. A Negro who is bound by oath to defend and die for his country, then in training to do same, is seragated [segregated] mistreated every where he goes from town to town is very disheartening and the moral [morale] of a negro soldier is very low because of this situation. Something will have to be done about white civilians assulting negro troops in the south and nothing done about it."""